{
  "environment": "testing",
  "env": {
    "PORT": 3001,
    "MONGO_URL": "mongodb://localhost:27017/quot"
  },
  "oauth": {
    "facebook": {
      "appId": "210555249668481",
      "secret": "810b97caa9ad12ad79ff062dbefde8a4"
    },
    "google": {
      "appId": "449661531378-cohn670m6ggc9gl3il764dqofh60qtb2.apps.googleusercontent.com",
      "secret": "8i526ChTpflKqXUEOx8mywki"
    },
    "twitter": {
      "appId": "e5ykZkeMi735LxQH8JpoFCE6D",
      "secret": "WZF0kFm21QGpSQpzfyyTyiyNckxpvEuL084dsdy6xQPyIHHnZ5"
    },
    "vk": {
      "appId": "6238227",
      "secret": "qYcmoE8ykmHLSXBfm7Tz",
      "scope": "0030fe900030fe900030fe90d9006fce83000300030fe905a8ea1983be6f205d9d1285a"
    }
  },
  "api": {
    "youtube": {
      "v3": {
        "key": "AIzaSyB1OOSpTREs85WUMvIgJvLTZKye4BVsoFU"
      }
    }
  },
  "public": {
    "api": {
      "store": {
        "host": "http://localhost:4000"
      }
    }
  }
}
