<svg viewBox="0 0 120 31" version="1.1" xmlns="http://www.w3.org/2000/svg" xmlns:xlink="http://www.w3.org/1999/xlink">
    <title>ELEMENTS</title>
    <desc>Created using Figma</desc>
    <g id="Canvas" transform="translate(-163 109)">
        <g id="Line">
            <use xlink:href="#path0_stroke" transform="matrix(0.707107 0.707107 -0.707107 0.707107 179 -88)" fill="#333333"/>
        </g>
        <g id="U">
            <use xlink:href="#path1_stroke" transform="translate(202 -108)" fill="url(#paint1_linear)"/>
        </g>
        <g id="GRADIENT_CIRCLE">
            <use xlink:href="#path2_fill" transform="translate(163 -109)" fill="url(#paint2_linear)"/>
        </g>
        <g id="GRADIENT_CIRCLE">
            <use xlink:href="#path2_fill" transform="translate(230 -109)" fill="url(#paint3_linear)"/>
        </g>
        <g id="Vector">
            <use xlink:href="#path3_stroke" transform="translate(264 -105.5)" fill="#333333"/>
        </g>
    </g>
    <defs>
        <linearGradient id="paint1_linear" x1="0" y1="0" x2="1" y2="0" gradientUnits="userSpaceOnUse" gradientTransform="matrix(7.59281e-15 26 -20 6.49063e-15 20 7.73743e-22)">
            <stop offset="0" stop-color="#4D3232"/>
            <stop offset="1" stop-color="#333333"/>
        </linearGradient>
        <linearGradient id="paint2_linear" x1="0" y1="0" x2="1" y2="0" gradientUnits="userSpaceOnUse" gradientTransform="matrix(27 -22 22.5366 27.6585 -7.26829 12.1707)">
            <stop offset="0" stop-color="#F5576C"/>
            <stop offset="1" stop-color="#FF795C"/>
        </linearGradient>
        <linearGradient id="paint3_linear" x1="0" y1="0" x2="1" y2="0" gradientUnits="userSpaceOnUse" gradientTransform="matrix(27 -22 22.5366 27.6585 -7.26829 12.1707)">
            <stop offset="0" stop-color="#38F9D7"/>
            <stop offset="1" stop-color="#43E97B"/>
        </linearGradient>
        <path id="path0_stroke" d="M 0 0L 14.1421 0L 14.1421 -7L 0 -7L 0 0Z"/>
        <path id="path1_stroke" d="M 1.21659e-05 0C -3.49999 -9.59887e-06 -3.49999 7.3362e-06 -3.49999 4.12191e-05C -3.49999 7.50932e-05 -3.49999 0.000125924 -3.49999 0.000193724C -3.49999 0.000329247 -3.49999 0.000532893 -3.49999 0.000804409C -3.49999 0.00134761 -3.49999 0.00216317 -3.49999 0.00325281C -3.49999 0.00543205 -3.49999 0.0087075 -3.49999 0.0130923C -3.49999 0.0218618 -3.49999 0.0350687 -3.49999 0.0528182C -3.49999 0.0883172 -3.49999 0.141987 -3.49999 0.214669C -3.49999 0.360034 -3.49999 0.58145 -3.49999 0.885657C -3.49999 1.49407 -3.49999 2.43364 -3.49999 3.75829C -3.5 6.40758 -3.5 10.5972 -3.5 16.7583L 3.5 16.7583C 3.5 10.5972 3.5 6.40759 3.50001 3.7583C 3.50001 2.43365 3.50001 1.49408 3.50001 0.88567C 3.50001 0.581464 3.50001 0.360049 3.50001 0.214685C 3.50001 0.142003 3.50001 0.0883342 3.50001 0.0528357C 3.50001 0.0350865 3.50001 0.0218799 3.50001 0.0131106C 3.50001 0.00872598 3.50001 0.00545072 3.50001 0.00327159C 3.50001 0.00218204 3.50001 0.00136651 3.50001 0.0008234C 3.50001 0.000551783 3.50001 0.00034844 3.50001 0.000212817C 3.50001 0.000145035 3.50001 9.42303e-05 3.50001 6.03648e-05C 3.50001 2.65079e-05 3.50001 9.59887e-06 1.21659e-05 0ZM -3.5 16.7583C -3.5 20.8893 -1.7786 24.1909 0.903321 26.394C 3.50174 28.5286 6.82521 29.5 10 29.5C 13.1748 29.5 16.4983 28.5286 19.0967 26.394C 21.7786 24.1909 23.5 20.8893 23.5 16.7583L 16.5 16.7583C 16.5 18.7885 15.7214 20.1077 14.6533 20.9851C 13.5017 21.9311 11.8252 22.5 10 22.5C 8.1748 22.5 6.49826 21.9311 5.34668 20.9851C 4.2786 20.1077 3.5 18.7885 3.5 16.7583L -3.5 16.7583ZM 23.5 16.7583C 23.5 16.7342 23.5 16.7102 23.5 16.6862C 23.5 16.6622 23.5 16.6382 23.5 16.6143C 23.5 16.5903 23.5 16.5664 23.5 16.5425C 23.5 16.5186 23.5 16.4948 23.5 16.4709C 23.5 16.4471 23.5 16.4233 23.5 16.3995C 23.5 16.3758 23.5 16.352 23.5 16.3283C 23.5 16.3046 23.5 16.2809 23.5 16.2573C 23.5 16.2337 23.5 16.21 23.5 16.1864C 23.5 16.1629 23.5 16.1393 23.5 16.1158C 23.5 16.0922 23.5 16.0688 23.5 16.0453C 23.5 16.0218 23.5 15.9984 23.5 15.975C 23.5 15.9516 23.5 15.9282 23.5 15.9048C 23.5 15.8815 23.5 15.8582 23.5 15.8349C 23.5 15.8116 23.5 15.7883 23.5 15.7651C 23.5 15.7419 23.5 15.7187 23.5 15.6955C 23.5 15.6723 23.5 15.6492 23.5 15.6261C 23.5 15.603 23.5 15.5799 23.5 15.5568C 23.5 15.5338 23.5 15.5108 23.5 15.4878C 23.5 15.4648 23.5 15.4418 23.5 15.4189C 23.5 15.3959 23.5 15.373 23.5 15.3502C 23.5 15.3273 23.5 15.3045 23.5 15.2816C 23.5 15.2588 23.5 15.236 23.5 15.2133C 23.5 15.1905 23.5 15.1678 23.5 15.1451C 23.5 15.1224 23.5 15.0997 23.5 15.0771C 23.5 15.0545 23.5 15.0319 23.5 15.0093C 23.5 14.9867 23.5 14.9641 23.5 14.9416C 23.5 14.9191 23.5 14.8966 23.5 14.8742C 23.5 14.8517 23.5 14.8293 23.5 14.8069C 23.5 14.7845 23.5 14.7621 23.5 14.7397C 23.5 14.7174 23.5 14.6951 23.5 14.6728C 23.5 14.6505 23.5 14.6283 23.5 14.606C 23.5 14.5838 23.5 14.5616 23.5 14.5394C 23.5 14.5173 23.5 14.4951 23.5 14.473C 23.5 14.4509 23.5 14.4288 23.5 14.4068C 23.5 14.3847 23.5 14.3627 23.5 14.3407C 23.5 14.3187 23.5 14.2968 23.5 14.2748C 23.5 14.2529 23.5 14.231 23.5 14.2091C 23.5 14.1872 23.5 14.1654 23.5 14.1436C 23.5 14.1218 23.5 14.1 23.5 14.0782C 23.5 14.0564 23.5 14.0347 23.5 14.013C 23.5 13.9913 23.5 13.9696 23.5 13.948C 23.5 13.9264 23.5 13.9047 23.5 13.8832C 23.5 13.8616 23.5 13.84 23.5 13.8185C 23.5 13.797 23.5 13.7755 23.5 13.754C 23.5 13.7325 23.5 13.7111 23.5 13.6897C 23.5 13.6683 23.5 13.6469 23.5 13.6255C 23.5 13.6042 23.5 13.5828 23.5 13.5615C 23.5 13.5403 23.5 13.519 23.5 13.4977C 23.5 13.4765 23.5 13.4553 23.5 13.4341C 23.5 13.4129 23.5 13.3918 23.5 13.3707C 23.5 13.3495 23.5 13.3284 23.5 13.3074C 23.5 13.2863 23.5 13.2653 23.5 13.2443C 23.5 13.2233 23.5 13.2023 23.5 13.1813C 23.5 13.1604 23.5 13.1395 23.5 13.1186C 23.5 13.0977 23.5 13.0768 23.5 13.056C 23.5 13.0351 23.5 13.0143 23.5 12.9936C 23.5 12.9728 23.5 12.952 23.5 12.9313C 23.5 12.9106 23.5 12.8899 23.5 12.8692C 23.5 12.8486 23.5 12.8279 23.5 12.8073C 23.5 12.7867 23.5 12.7661 23.5 12.7456C 23.5 12.725 23.5 12.7045 23.5 12.684C 23.5 12.6635 23.5 12.6431 23.5 12.6226C 23.5 12.6022 23.5 12.5818 23.5 12.5614C 23.5 12.541 23.5 12.5207 23.5 12.5004C 23.5 12.48 23.5 12.4598 23.5 12.4395C 23.5 12.4192 23.5 12.399 23.5 12.3788C 23.5 12.3586 23.5 12.3384 23.5 12.3182C 23.5 12.2981 23.5 12.278 23.5 12.2579C 23.5 12.2378 23.5 12.2177 23.5 12.1977C 23.5 12.1776 23.5 12.1576 23.5 12.1376C 23.5 12.1177 23.5 12.0977 23.5 12.0778C 23.5 12.0579 23.5 12.038 23.5 12.0181C 23.5 11.9982 23.5 11.9784 23.5 11.9586C 23.5 11.9388 23.5 11.919 23.5 11.8992C 23.5 11.8795 23.5 11.8597 23.5 11.84C 23.5 11.8203 23.5 11.8007 23.5 11.781C 23.5 11.7614 23.5 11.7418 23.5 11.7222C 23.5 11.7026 23.5 11.683 23.5 11.6635C 23.5 11.644 23.5 11.6245 23.5 11.605C 23.5 11.5855 23.5 11.5661 23.5 11.5467C 23.5 11.5273 23.5 11.5079 23.5 11.4885C 23.5 11.4691 23.5 11.4498 23.5 11.4305C 23.5 11.4112 23.5 11.3919 23.5 11.3727C 23.5 11.3534 23.5 11.3342 23.5 11.315C 23.5 11.2958 23.5 11.2766 23.5 11.2575C 23.5 11.2384 23.5 11.2193 23.5 11.2002C 23.5 11.1811 23.5 11.162 23.5 11.143C 23.5 11.124 23.5 11.105 23.5 11.086C 23.5 11.067 23.5 11.0481 23.5 11.0292C 23.5 11.0103 23.5 10.9914 23.5 10.9725C 23.5 10.9537 23.5 10.9348 23.5 10.916C 23.5 10.8972 23.5 10.8784 23.5 10.8597C 23.5 10.8409 23.5 10.8222 23.5 10.8035C 23.5 10.7848 23.5 10.7662 23.5 10.7475C 23.5 10.7289 23.5 10.7103 23.5 10.6917C 23.5 10.6731 23.5 10.6546 23.5 10.636C 23.5 10.6175 23.5 10.599 23.5 10.5805C 23.5 10.5621 23.5 10.5436 23.5 10.5252C 23.5 10.5068 23.5 10.4884 23.5 10.47C 23.5 10.4517 23.5 10.4333 23.5 10.415C 23.5 10.3967 23.5 10.3784 23.5 10.3602C 23.5 10.3419 23.5 10.3237 23.5 10.3055C 23.5 10.2873 23.5 10.2691 23.5 10.251C 23.5 10.2328 23.5 10.2147 23.5 10.1966C 23.5 10.1786 23.5 10.1605 23.5 10.1425C 23.5 10.1244 23.5 10.1064 23.5 10.0884C 23.5 10.0705 23.5 10.0525 23.5 10.0346C 23.5 10.0167 23.5 9.99878 23.5 9.98091C 23.5 9.96304 23.5 9.9452 23.5 9.92739C 23.5 9.90957 23.5 9.89178 23.5 9.87402C 23.5 9.85627 23.5 9.83853 23.5 9.82083C 23.5 9.80312 23.5 9.78544 23.5 9.76779C 23.5 9.75014 23.5 9.73252 23.5 9.71492C 23.5 9.69733 23.5 9.67976 23.5 9.66222C 23.5 9.64467 23.5 9.62716 23.5 9.60967C 23.5 9.59218 23.5 9.57472 23.5 9.55729C 23.5 9.53986 23.5 9.52245 23.5 9.50507C 23.5 9.48769 23.5 9.47034 23.5 9.45301C 23.5 9.43569 23.5 9.41839 23.5 9.40112C 23.5 9.38385 23.5 9.36661 23.5 9.34939C 23.5 9.33217 23.5 9.31498 23.5 9.29782C 23.5 9.28066 23.5 9.26352 23.5 9.24641C 23.5 9.2293 23.5 9.21222 23.5 9.19516C 23.5 9.17811 23.5 9.16108 23.5 9.14408C 23.5 9.12708 23.5 9.1101 23.5 9.09315C 23.5 9.07621 23.5 9.05929 23.5 9.04239C 23.5 9.0255 23.5 9.00863 23.5 8.99179C 23.5 8.97495 23.5 8.95814 23.5 8.94135C 23.5 8.92456 23.5 8.9078 23.5 8.89107C 23.5 8.87434 23.5 8.85763 23.5 8.84095C 23.5 8.82427 23.5 8.80762 23.5 8.79099C 23.5 8.77437 23.5 8.75777 23.5 8.74119C 23.5 8.72462 23.5 8.70808 23.5 8.69156C 23.5 8.67504 23.5 8.65854 23.5 8.64208C 23.5 8.62561 23.5 8.60917 23.5 8.59276C 23.5 8.57635 23.5 8.55996 23.5 8.5436C 23.5 8.52724 23.5 8.51091 23.5 8.4946C 23.5 8.4783 23.5 8.46202 23.5 8.44576C 23.5 8.42951 23.5 8.41328 23.5 8.39708C 23.5 8.38088 23.5 8.36471 23.5 8.34856C 23.5 8.33241 23.5 8.31629 23.5 8.3002C 23.5 8.2841 23.5 8.26803 23.5 8.25199C 23.5 8.23595 23.5 8.21994 23.5 8.20395C 23.5 8.18796 23.5 8.172 23.5 8.15606C 23.5 8.14013 23.5 8.12422 23.5 8.10833C 23.5 8.09245 23.5 8.07659 23.5 8.06076C 23.5 8.04493 23.5 8.02913 23.5 8.01335C 23.5 7.99757 23.5 7.98182 23.5 7.9661C 23.5 7.95037 23.5 7.93467 23.5 7.919C 23.5 7.90333 23.5 7.88768 23.5 7.87206C 23.5 7.85644 23.5 7.84084 23.5 7.82528C 23.5 7.80971 23.5 7.79417 23.5 7.77865C 23.5 7.76314 23.5 7.74765 23.5 7.73218C 23.5 7.71672 23.5 7.70128 23.5 7.68587C 23.5 7.67046 23.5 7.65508 23.5 7.63972C 23.5 7.62436 23.5 7.60903 23.5 7.59372C 23.5 7.57842 23.5 7.56313 23.5 7.54788C 23.5 7.53263 23.5 7.5174 23.5 7.5022C 23.5 7.48699 23.5 7.47182 23.5 7.45667C 23.5 7.44152 23.5 7.42639 23.5 7.41129C 23.5 7.3962 23.5 7.38112 23.5 7.36608C 23.5 7.35103 23.5 7.33601 23.5 7.32102C 23.5 7.30602 23.5 7.29105 23.5 7.27611C 23.5 7.26117 23.5 7.24625 23.5 7.23136C 23.5 7.21647 23.5 7.2016 23.5 7.18677C 23.5 7.17193 23.5 7.15711 23.5 7.14233C 23.5 7.12754 23.5 7.11278 23.5 7.09804C 23.5 7.0833 23.5 7.06859 23.5 7.05391C 23.5 7.03923 23.5 7.02457 23.5 7.00993C 23.5 6.9953 23.5 6.98069 23.5 6.96611C 23.5 6.95153 23.5 6.93698 23.5 6.92245C 23.5 6.90792 23.5 6.89341 23.5 6.87893C 23.5 6.86445 23.5 6.85 23.5 6.83557C 23.5 6.82115 23.5 6.80674 23.5 6.79237C 23.5 6.77799 23.5 6.76364 23.5 6.74932C 23.5 6.73499 23.5 6.72069 23.5 6.70642C 23.5 6.69215 23.5 6.6779 23.5 6.66367C 23.5 6.64945 23.5 6.63525 23.5 6.62108C 23.5 6.60691 23.5 6.59277 23.5 6.57864C 23.5 6.56452 23.5 6.55043 23.5 6.53636C 23.5 6.52229 23.5 6.50825 23.5 6.49423C 23.5 6.48021 23.5 6.46621 23.5 6.45225C 23.5 6.43828 23.5 6.42434 23.5 6.41042C 23.5 6.3965 23.5 6.38261 23.5 6.36874C 23.5 6.35488 23.5 6.34104 23.5 6.32722C 23.5 6.3134 23.5 6.29961 23.5 6.28585C 23.5 6.27208 23.5 6.25834 23.5 6.24463C 23.5 6.23091 23.5 6.21722 23.5 6.20356C 23.5 6.1899 23.5 6.17626 23.5 6.16264C 23.5 6.14903 23.5 6.13544 23.5 6.12188C 23.5 6.10832 23.5 6.09478 23.5 6.08127C 23.5 6.06775 23.5 6.05426 23.5 6.0408C 23.5 6.02734 23.5 6.0139 23.5 6.00049C 23.5 5.98708 23.5 5.97369 23.5 5.96033C 23.5 5.94697 23.5 5.93363 23.5 5.92032C 23.5 5.90701 23.5 5.89372 23.5 5.88046C 23.5 5.8672 23.5 5.85396 23.5 5.84075C 23.5 5.82754 23.5 5.81435 23.5 5.80119C 23.5 5.78803 23.5 5.77489 23.5 5.76178C 23.5 5.74867 23.5 5.73558 23.5 5.72252C 23.5 5.70946 23.5 5.69642 23.5 5.68341C 23.5 5.6704 23.5 5.65741 23.5 5.64445C 23.5 5.63149 23.5 5.61855 23.5 5.60564C 23.5 5.59272 23.5 5.57984 23.5 5.56697C 23.5 5.55411 23.5 5.54127 23.5 5.52846C 23.5 5.51565 23.5 5.50286 23.5 5.4901C 23.5 5.47733 23.5 5.46459 23.5 5.45188C 23.5 5.43917 23.5 5.42648 23.5 5.41381C 23.5 5.40115 23.5 5.38851 23.5 5.37589C 23.5 5.36328 23.5 5.35069 23.5 5.33812C 23.5 5.32556 23.5 5.31302 23.5 5.3005C 23.5 5.28799 23.5 5.27549 23.5 5.26303C 23.5 5.25056 23.5 5.23812 23.5 5.2257C 23.5 5.21328 23.5 5.20089 23.5 5.18852C 23.5 5.17615 23.5 5.16381 23.5 5.15149C 23.5 5.13917 23.5 5.12688 23.5 5.11461C 23.5 5.10234 23.5 5.09009 23.5 5.07787C 23.5 5.06565 23.5 5.05345 23.5 5.04128C 23.5 5.02911 23.5 5.01696 23.5 5.00484C 23.5 4.99271 23.5 4.98062 23.5 4.96854C 23.5 4.95647 23.5 4.94442 23.5 4.93239C 23.5 4.92037 23.5 4.90836 23.5 4.89639C 23.5 4.88441 23.5 4.87246 23.5 4.86053C 23.5 4.8486 23.5 4.8367 23.5 4.82482C 23.5 4.81294 23.5 4.80109 23.5 4.78926C 23.5 4.77742 23.5 4.76562 23.5 4.75384C 23.5 4.74205 23.5 4.7303 23.5 4.71856C 23.5 4.70683 23.5 4.69512 23.5 4.68343C 23.5 4.67175 23.5 4.66009 23.5 4.64845C 23.5 4.63682 23.5 4.6252 23.5 4.61361C 23.5 4.60203 23.5 4.59046 23.5 4.57892C 23.5 4.56738 23.5 4.55587 23.5 4.54437C 23.5 4.53288 23.5 4.52142 23.5 4.50997C 23.5 4.49853 23.5 4.48711 23.5 4.47571C 23.5 4.46432 23.5 4.45295 23.5 4.4416C 23.5 4.43025 23.5 4.41893 23.5 4.40763C 23.5 4.39633 23.5 4.38506 23.5 4.3738C 23.5 4.36255 23.5 4.35133 23.5 4.34012C 23.5 4.32892 23.5 4.31774 23.5 4.30659C 23.5 4.29543 23.5 4.2843 23.5 4.27319C 23.5 4.26208 23.5 4.251 23.5 4.23994C 23.5 4.22888 23.5 4.21784 23.5 4.20683C 23.5 4.19582 23.5 4.18483 23.5 4.17387C 23.5 4.1629 23.5 4.15196 23.5 4.14105C 23.5 4.13013 23.5 4.11924 23.5 4.10837C 23.5 4.0975 23.5 4.08666 23.5 4.07583C 23.5 4.06501 23.5 4.05421 23.5 4.04344C 23.5 4.03267 23.5 4.02192 23.5 4.01119C 23.5 4.00046 23.5 3.98976 23.5 3.97908C 23.5 3.9684 23.5 3.95775 23.5 3.94712C 23.5 3.93648 23.5 3.92588 23.5 3.91529C 23.5 3.90471 23.5 3.89415 23.5 3.88361C 23.5 3.87307 23.5 3.86256 23.5 3.85207C 23.5 3.84158 23.5 3.83111 23.5 3.82067C 23.5 3.81023 23.5 3.79981 23.5 3.78941C 23.5 3.77901 23.5 3.76864 23.5 3.75829C 23.5 3.74794 23.5 3.73762 23.5 3.72732C 23.5 3.71702 23.5 3.70674 23.5 3.69648C 23.5 3.68623 23.5 3.676 23.5 3.66579C 23.5 3.65558 23.5 3.6454 23.5 3.63523C 23.5 3.62507 23.5 3.61494 23.5 3.60482C 23.5 3.59471 23.5 3.58462 23.5 3.57455C 23.5 3.56448 23.5 3.55444 23.5 3.54442C 23.5 3.53439 23.5 3.5244 23.5 3.51442C 23.5 3.50445 23.5 3.4945 23.5 3.48457C 23.5 3.47464 23.5 3.46474 23.5 3.45486C 23.5 3.44497 23.5 3.43512 23.5 3.42528C 23.5 3.41545 23.5 3.40563 23.5 3.39585C 23.5 3.38606 23.5 3.37629 23.5 3.36655C 23.5 3.35681 23.5 3.34709 23.5 3.33739C 23.5 3.3277 23.5 3.31803 23.5 3.30838C 23.5 3.29873 23.5 3.2891 23.5 3.2795C 23.5 3.26989 23.5 3.26031 23.5 3.25076C 23.5 3.2412 23.5 3.23167 23.5 3.22215C 23.5 3.21264 23.5 3.20316 23.5 3.19369C 23.5 3.18423 23.5 3.17478 23.5 3.16536C 23.5 3.15595 23.5 3.14655 23.5 3.13718C 23.5 3.1278 23.5 3.11845 23.5 3.10913C 23.5 3.0998 23.5 3.0905 23.5 3.08121C 23.5 3.07193 23.5 3.06267 23.5 3.05344C 23.5 3.0442 23.5 3.03499 23.5 3.0258C 23.5 3.01661 23.5 3.00744 23.5 2.9983C 23.5 2.98916 23.5 2.98004 23.5 2.97094C 23.5 2.96184 23.5 2.95276 23.5 2.94371C 23.5 2.93466 23.5 2.92563 23.5 2.91662C 23.5 2.90761 23.5 2.89863 23.5 2.88967C 23.5 2.88071 23.5 2.87177 23.5 2.86285C 23.5 2.85393 23.5 2.84504 23.5 2.83617C 23.5 2.8273 23.5 2.81845 23.5 2.80962C 23.5 2.8008 23.5 2.792 23.5 2.78322C 23.5 2.77443 23.5 2.76568 23.5 2.75694C 23.5 2.74821 23.5 2.73949 23.5 2.7308C 23.5 2.72211 23.5 2.71345 23.5 2.7048C 23.5 2.69616 23.5 2.68754 23.5 2.67894C 23.5 2.67034 23.5 2.66176 23.5 2.6532C 23.5 2.64465 23.5 2.63612 23.5 2.62761C 23.5 2.6191 23.5 2.61061 23.5 2.60215C 23.5 2.59368 23.5 2.58524 23.5 2.57682C 23.5 2.5684 23.5 2.56 23.5 2.55163C 23.5 2.54325 23.5 2.5349 23.5 2.52657C 23.5 2.51824 23.5 2.50993 23.5 2.50165C 23.5 2.49336 23.5 2.4851 23.5 2.47686C 23.5 2.46861 23.5 2.4604 23.5 2.4522C 23.5 2.444 23.5 2.43583 23.5 2.42768C 23.5 2.41953 23.5 2.4114 23.5 2.40329C 23.5 2.39518 23.5 2.3871 23.5 2.37903C 23.5 2.37097 23.5 2.36293 23.5 2.35491C 23.5 2.34689 23.5 2.3389 23.5 2.33092C 23.5 2.32295 23.5 2.315 23.5 2.30707C 23.5 2.29914 23.5 2.29123 23.5 2.28335C 23.5 2.27546 23.5 2.2676 23.5 2.25976C 23.5 2.25191 23.5 2.2441 23.5 2.2363C 23.5 2.2285 23.5 2.22073 23.5 2.21297C 23.5 2.20522 23.5 2.19749 23.5 2.18978C 23.5 2.18207 23.5 2.17438 23.5 2.16672C 23.5 2.15905 23.5 2.15141 23.5 2.14379C 23.5 2.13617 23.5 2.12857 23.5 2.12099C 23.5 2.11342 23.5 2.10586 23.5 2.09833C 23.5 2.0908 23.5 2.08328 23.5 2.07579C 23.5 2.0683 23.5 2.06084 23.5 2.05339C 23.5 2.04595 23.5 2.03852 23.5 2.03112C 23.5 2.02372 23.5 2.01634 23.5 2.00898C 23.5 2.00162 23.5 1.99428 23.5 1.98697C 23.5 1.97965 23.5 1.97236 23.5 1.96509C 23.5 1.95782 23.5 1.95057 23.5 1.94334C 23.5 1.93611 23.5 1.92891 23.5 1.92172C 23.5 1.91454 23.5 1.90738 23.5 1.90024C 23.5 1.89309 23.5 1.88598 23.5 1.87888C 23.5 1.87178 23.5 1.8647 23.5 1.85765C 23.5 1.8506 23.5 1.84356 23.5 1.83655C 23.5 1.82954 23.5 1.82255 23.5 1.81558C 23.5 1.80862 23.5 1.80167 23.5 1.79474C 23.5 1.78782 23.5 1.78092 23.5 1.77403C 23.5 1.76715 23.5 1.76029 23.5 1.75345C 23.5 1.74661 23.5 1.7398 23.5 1.733C 23.5 1.72621 23.5 1.71943 23.5 1.71268C 23.5 1.70593 23.5 1.69919 23.5 1.69248C 23.5 1.68577 23.5 1.67909 23.5 1.67242C 23.5 1.66575 23.5 1.65911 23.5 1.65248C 23.5 1.64586 23.5 1.63925 23.5 1.63267C 23.5 1.62609 23.5 1.61953 23.5 1.61299C 23.5 1.60645 23.5 1.59993 23.5 1.59344C 23.5 1.58694 23.5 1.58047 23.5 1.57401C 23.5 1.56756 23.5 1.56113 23.5 1.55472C 23.5 1.5483 23.5 1.54191 23.5 1.53554C 23.5 1.52918 23.5 1.52283 23.5 1.5165C 23.5 1.51018 23.5 1.50387 23.5 1.49759C 23.5 1.4913 23.5 1.48504 23.5 1.4788C 23.5 1.47255 23.5 1.46633 23.5 1.46013C 23.5 1.45394 23.5 1.44776 23.5 1.4416C 23.5 1.43544 23.5 1.42931 23.5 1.42319C 23.5 1.41708 23.5 1.41098 23.5 1.40491C 23.5 1.39883 23.5 1.39278 23.5 1.38675C 23.5 1.38072 23.5 1.37471 23.5 1.36872C 23.5 1.36273 23.5 1.35676 23.5 1.35082C 23.5 1.34487 23.5 1.33894 23.5 1.33304C 23.5 1.32713 23.5 1.32125 23.5 1.31539C 23.5 1.30952 23.5 1.30368 23.5 1.29786C 23.5 1.29204 23.5 1.28624 23.5 1.28046C 23.5 1.27468 23.5 1.26892 23.5 1.26318C 23.5 1.25744 23.5 1.25172 23.5 1.24603C 23.5 1.24033 23.5 1.23465 23.5 1.229C 23.5 1.22334 23.5 1.21771 23.5 1.2121C 23.5 1.20648 23.5 1.20089 23.5 1.19532C 23.5 1.18975 23.5 1.18419 23.5 1.17866C 23.5 1.17313 23.5 1.16762 23.5 1.16213C 23.5 1.15664 23.5 1.15118 23.5 1.14573C 23.5 1.14028 23.5 1.13485 23.5 1.12945C 23.5 1.12404 23.5 1.11865 23.5 1.11329C 23.5 1.10792 23.5 1.10258 23.5 1.09725C 23.5 1.09193 23.5 1.08663 23.5 1.08134C 23.5 1.07606 23.5 1.0708 23.5 1.06556C 23.5 1.06031 23.5 1.05509 23.5 1.04989C 23.5 1.04469 23.5 1.03951 23.5 1.03435C 23.5 1.02919 23.5 1.02405 23.5 1.01893C 23.5 1.01381 23.5 1.00871 23.5 1.00363C 23.5 0.998556 23.5 0.993499 23.5 0.988461C 23.5 0.983424 23.5 0.978407 23.5 0.97341C 23.5 0.968413 23.5 0.963437 23.5 0.958481C 23.5 0.953525 23.5 0.948589 23.5 0.943674C 23.5 0.938759 23.5 0.933864 23.5 0.928989C 23.5 0.924114 23.5 0.91926 23.5 0.914426C 23.5 0.909591 23.5 0.904777 23.5 0.899984C 23.5 0.89519 23.5 0.890417 23.5 0.885663C 23.5 0.88091 23.5 0.876177 23.5 0.871464C 23.5 0.866752 23.5 0.862059 23.5 0.857387C 23.5 0.852714 23.5 0.848062 23.5 0.84343C 23.5 0.838797 23.5 0.834185 23.5 0.829593C 23.5 0.825001 23.5 0.82043 23.5 0.815878C 23.5 0.811326 23.5 0.806795 23.5 0.802283C 23.5 0.797771 23.5 0.79328 23.5 0.788808C 23.5 0.784337 23.5 0.779885 23.5 0.775454C 23.5 0.771022 23.5 0.766611 23.5 0.762219C 23.5 0.757828 23.5 0.753456 23.5 0.749105C 23.5 0.744753 23.5 0.740422 23.5 0.73611C 23.5 0.731798 23.5 0.727507 23.5 0.723235C 23.5 0.718963 23.5 0.714711 23.5 0.710479C 23.5 0.706247 23.5 0.702035 23.5 0.697843C 23.5 0.69365 23.5 0.689478 23.5 0.685325C 23.5 0.681173 23.5 0.67704 23.5 0.672927C 23.5 0.668814 23.5 0.664721 23.5 0.660647C 23.5 0.656574 23.5 0.65252 23.5 0.648486C 23.5 0.644452 23.5 0.640438 23.5 0.636444C 23.5 0.632449 23.5 0.628475 23.5 0.62452C 23.5 0.620565 23.5 0.616629 23.5 0.612714C 23.5 0.608798 23.5 0.604902 23.5 0.601026C 23.5 0.597149 23.5 0.593293 23.5 0.589456C 23.5 0.585619 23.5 0.581801 23.5 0.578003C 23.5 0.574206 23.5 0.570427 23.5 0.566669C 23.5 0.56291 23.5 0.559171 23.5 0.555451C 23.5 0.551732 23.5 0.548032 23.5 0.544351C 23.5 0.540671 23.5 0.53701 23.5 0.533368C 23.5 0.529727 23.5 0.526105 23.5 0.522502C 23.5 0.5189 23.5 0.515317 23.5 0.511753C 23.5 0.50819 23.5 0.504645 23.5 0.501121C 23.5 0.497596 23.5 0.494091 23.5 0.490605C 23.5 0.487119 23.5 0.483652 23.5 0.480205C 23.5 0.476758 23.5 0.47333 23.5 0.469921C 23.5 0.466513 23.5 0.463124 23.5 0.459754C 23.5 0.456384 23.5 0.453034 23.5 0.449702C 23.5 0.446371 23.5 0.443059 23.5 0.439766C 23.5 0.436474 23.5 0.4332 23.5 0.429946C 23.5 0.426692 23.5 0.423457 23.5 0.420241C 23.5 0.417026 23.5 0.413829 23.5 0.410652C 23.5 0.407474 23.5 0.404316 23.5 0.401177C 23.5 0.398038 23.5 0.394918 23.5 0.391817C 23.5 0.388717 23.5 0.385635 23.5 0.382573C 23.5 0.37951 23.5 0.376467 23.5 0.373443C 23.5 0.370418 23.5 0.367413 23.5 0.364427C 23.5 0.361441 23.5 0.358474 23.5 0.355526C 23.5 0.352578 23.5 0.349648 23.5 0.346738C 23.5 0.343828 23.5 0.340937 23.5 0.338065C 23.5 0.335193 23.5 0.33234 23.5 0.329506C 23.5 0.326672 23.5 0.323857 23.5 0.321061C 23.5 0.318264 23.5 0.315487 23.5 0.312729C 23.5 0.30997 23.5 0.307231 23.5 0.30451C 23.5 0.301789 23.5 0.299088 23.5 0.296405C 23.5 0.293722 23.5 0.291058 23.5 0.288413C 23.5 0.285767 23.5 0.283141 23.5 0.280533C 23.5 0.277926 23.5 0.275337 23.5 0.272767C 23.5 0.270197 23.5 0.267646 23.5 0.265113C 23.5 0.26258 23.5 0.260067 23.5 0.257572C 23.5 0.255077 23.5 0.2526 23.5 0.250143C 23.5 0.247685 23.5 0.245246 23.5 0.242826C 23.5 0.240406 23.5 0.238004 23.5 0.235621C 23.5 0.233238 23.5 0.230874 23.5 0.228528C 23.5 0.226182 23.5 0.223855 23.5 0.221547C 23.5 0.219238 23.5 0.216948 23.5 0.214677C 23.5 0.212406 23.5 0.210153 23.5 0.207919C 23.5 0.205685 23.5 0.203469 23.5 0.201272C 23.5 0.199075 23.5 0.196896 23.5 0.194736C 23.5 0.192576 23.5 0.190434 23.5 0.188311C 23.5 0.186188 23.5 0.184083 23.5 0.181997C 23.5 0.17991 23.5 0.177843 23.5 0.175793C 23.5 0.173744 23.5 0.171713 23.5 0.1697C 23.5 0.167687 23.5 0.165693 23.5 0.163717C 23.5 0.161741 23.5 0.159784 23.5 0.157845C 23.5 0.155905 23.5 0.153985 23.5 0.152082C 23.5 0.15018 23.5 0.148295 23.5 0.146429C 23.5 0.144563 23.5 0.142716 23.5 0.140886C 23.5 0.139057 23.5 0.137246 23.5 0.135453C 23.5 0.13366 23.5 0.131885 23.5 0.130129C 23.5 0.128372 23.5 0.126634 23.5 0.124914C 23.5 0.123194 23.5 0.121492 23.5 0.119808C 23.5 0.118125 23.5 0.116459 23.5 0.114811C 23.5 0.113164 23.5 0.111535 23.5 0.109923C 23.5 0.108312 23.5 0.106719 23.5 0.105144C 23.5 0.103569 23.5 0.102012 23.5 0.100473C 23.5 0.0989342 23.5 0.0974134 23.5 0.0959105C 23.5 0.0944077 23.5 0.0929229 23.5 0.0914561C 23.5 0.0899893 23.5 0.0885405 23.5 0.0871097C 23.5 0.0856789 23.5 0.084266 23.5 0.0828711C 23.5 0.0814762 23.5 0.0800993 23.5 0.0787403C 23.5 0.0773813 23.5 0.0760402 23.5 0.074717C 23.5 0.0733938 23.5 0.0720885 23.5 0.070801C 23.5 0.0695136 23.5 0.0682441 23.5 0.0669924C 23.5 0.0657407 23.5 0.0645068 23.5 0.0632908C 23.5 0.0620747 23.5 0.0608765 23.5 0.0596961C 23.5 0.0585157 23.5 0.0573531 23.5 0.0562082C 23.5 0.0550634 23.5 0.0539363 23.5 0.0528269C 23.5 0.0517176 23.5 0.050626 23.5 0.0495521C 23.5 0.0484783 23.5 0.0474221 23.5 0.0463837C 23.5 0.0453452 23.5 0.0443244 23.5 0.0433213C 23.5 0.0423182 23.5 0.0413328 23.5 0.040365C 23.5 0.0393972 23.5 0.0384471 23.5 0.0375145C 23.5 0.036582 23.5 0.0356671 23.5 0.0347698C 23.5 0.0338724 23.5 0.0329927 23.5 0.0321305C 23.5 0.0312684 23.5 0.0304238 23.5 0.0295967C 23.5 0.0287696 23.5 0.0279601 23.5 0.0271681C 23.5 0.0263761 23.5 0.0256016 23.5 0.0248446C 23.5 0.0240876 23.5 0.023348 23.5 0.022626C 23.5 0.0219039 23.5 0.0211993 23.5 0.0205121C 23.5 0.019825 23.5 0.0191552 23.5 0.0185029C 23.5 0.0178506 23.5 0.0172157 23.5 0.0165982C 23.5 0.0159806 23.5 0.0153805 23.5 0.0147977C 23.5 0.0142149 23.5 0.0136495 23.5 0.0131014C 23.5 0.0125534 23.5 0.0120226 23.5 0.0115092C 23.5 0.0109957 23.5 0.0104996 23.5 0.0100207C 23.5 0.00954186 23.5 0.00908028 23.5 0.00863597C 23.5 0.00819165 23.5 0.00776459 23.5 0.00735475C 23.5 0.00694492 23.5 0.00655232 23.5 0.00617693C 23.5 0.00580153 23.5 0.00544334 23.5 0.00510233C 23.5 0.00476132 23.5 0.00443748 23.5 0.0041308C 23.5 0.00382412 23.5 0.0035346 23.5 0.0032622C 23.5 0.0029898 23.5 0.00273453 23.5 0.00249636C 23.5 0.00225819 23.5 0.00203713 23.5 0.00183314C 23.5 0.00162915 23.5 0.00144223 23.5 0.00127237C 23.5 0.00110251 23.5 0.000949692 23.5 0.000813905C 23.5 0.000678117 23.5 0.000559354 23.5 0.00045759C 23.5 0.000355826 23.5 0.000271062 23.5 0.00020327C 23.5 0.000135479 23.5 8.46618e-05 23.5 5.07919e-05C 23.5 1.69221e-05 23.5 1.42109e-14 20 1.42109e-14C 16.5 1.42109e-14 16.5 1.69221e-05 16.5 5.07919e-05C 16.5 8.46618e-05 16.5 0.000135479 16.5 0.00020327C 16.5 0.000271062 16.5 0.000355826 16.5 0.00045759C 16.5 0.000559354 16.5 0.000678117 16.5 0.000813905C 16.5 0.000949692 16.5 0.00110251 16.5 0.00127237C 16.5 0.00144223 16.5 0.00162915 16.5 0.00183314C 16.5 0.00203713 16.5 0.00225819 16.5 0.00249636C 16.5 0.00273453 16.5 0.0029898 16.5 0.0032622C 16.5 0.0035346 16.5 0.00382412 16.5 0.0041308C 16.5 0.00443748 16.5 0.00476132 16.5 0.00510233C 16.5 0.00544334 16.5 0.00580153 16.5 0.00617693C 16.5 0.00655232 16.5 0.00694492 16.5 0.00735475C 16.5 0.00776459 16.5 0.00819165 16.5 0.00863597C 16.5 0.00908028 16.5 0.00954186 16.5 0.0100207C 16.5 0.0104996 16.5 0.0109957 16.5 0.0115092C 16.5 0.0120226 16.5 0.0125534 16.5 0.0131014C 16.5 0.0136495 16.5 0.0142149 16.5 0.0147977C 16.5 0.0153805 16.5 0.0159806 16.5 0.0165982C 16.5 0.0172157 16.5 0.0178506 16.5 0.0185029C 16.5 0.0191552 16.5 0.019825 16.5 0.0205121C 16.5 0.0211993 16.5 0.0219039 16.5 0.022626C 16.5 0.023348 16.5 0.0240876 16.5 0.0248446C 16.5 0.0256016 16.5 0.0263761 16.5 0.0271681C 16.5 0.0279601 16.5 0.0287696 16.5 0.0295967C 16.5 0.0304238 16.5 0.0312684 16.5 0.0321305C 16.5 0.0329927 16.5 0.0338724 16.5 0.0347698C 16.5 0.0356671 16.5 0.036582 16.5 0.0375145C 16.5 0.0384471 16.5 0.0393972 16.5 0.040365C 16.5 0.0413328 16.5 0.0423182 16.5 0.0433213C 16.5 0.0443244 16.5 0.0453452 16.5 0.0463837C 16.5 0.0474221 16.5 0.0484783 16.5 0.0495521C 16.5 0.050626 16.5 0.0517176 16.5 0.0528269C 16.5 0.0539363 16.5 0.0550634 16.5 0.0562082C 16.5 0.0573531 16.5 0.0585157 16.5 0.0596961C 16.5 0.0608765 16.5 0.0620747 16.5 0.0632908C 16.5 0.0645068 16.5 0.0657407 16.5 0.0669924C 16.5 0.0682441 16.5 0.0695136 16.5 0.070801C 16.5 0.0720885 16.5 0.0733938 16.5 0.074717C 16.5 0.0760402 16.5 0.0773813 16.5 0.0787403C 16.5 0.0800993 16.5 0.0814762 16.5 0.0828711C 16.5 0.084266 16.5 0.0856789 16.5 0.0871097C 16.5 0.0885405 16.5 0.0899893 16.5 0.0914561C 16.5 0.0929229 16.5 0.0944077 16.5 0.0959105C 16.5 0.0974134 16.5 0.0989342 16.5 0.100473C 16.5 0.102012 16.5 0.103569 16.5 0.105144C 16.5 0.106719 16.5 0.108312 16.5 0.109923C 16.5 0.111535 16.5 0.113164 16.5 0.114811C 16.5 0.116459 16.5 0.118125 16.5 0.119808C 16.5 0.121492 16.5 0.123194 16.5 0.124914C 16.5 0.126634 16.5 0.128372 16.5 0.130129C 16.5 0.131885 16.5 0.13366 16.5 0.135453C 16.5 0.137246 16.5 0.139057 16.5 0.140886C 16.5 0.142716 16.5 0.144563 16.5 0.146429C 16.5 0.148295 16.5 0.15018 16.5 0.152082C 16.5 0.153985 16.5 0.155905 16.5 0.157845C 16.5 0.159784 16.5 0.161741 16.5 0.163717C 16.5 0.165693 16.5 0.167687 16.5 0.1697C 16.5 0.171713 16.5 0.173744 16.5 0.175793C 16.5 0.177843 16.5 0.17991 16.5 0.181997C 16.5 0.184083 16.5 0.186188 16.5 0.188311C 16.5 0.190434 16.5 0.192576 16.5 0.194736C 16.5 0.196896 16.5 0.199075 16.5 0.201272C 16.5 0.203469 16.5 0.205685 16.5 0.207919C 16.5 0.210153 16.5 0.212406 16.5 0.214677C 16.5 0.216948 16.5 0.219238 16.5 0.221547C 16.5 0.223855 16.5 0.226182 16.5 0.228528C 16.5 0.230874 16.5 0.233238 16.5 0.235621C 16.5 0.238004 16.5 0.240406 16.5 0.242826C 16.5 0.245246 16.5 0.247685 16.5 0.250143C 16.5 0.2526 16.5 0.255077 16.5 0.257572C 16.5 0.260067 16.5 0.26258 16.5 0.265113C 16.5 0.267646 16.5 0.270197 16.5 0.272767C 16.5 0.275337 16.5 0.277926 16.5 0.280533C 16.5 0.283141 16.5 0.285767 16.5 0.288413C 16.5 0.291058 16.5 0.293722 16.5 0.296405C 16.5 0.299088 16.5 0.301789 16.5 0.30451C 16.5 0.307231 16.5 0.30997 16.5 0.312729C 16.5 0.315487 16.5 0.318264 16.5 0.321061C 16.5 0.323857 16.5 0.326672 16.5 0.329506C 16.5 0.33234 16.5 0.335193 16.5 0.338065C 16.5 0.340937 16.5 0.343828 16.5 0.346738C 16.5 0.349648 16.5 0.352578 16.5 0.355526C 16.5 0.358474 16.5 0.361441 16.5 0.364427C 16.5 0.367413 16.5 0.370418 16.5 0.373443C 16.5 0.376467 16.5 0.37951 16.5 0.382573C 16.5 0.385635 16.5 0.388717 16.5 0.391817C 16.5 0.394918 16.5 0.398038 16.5 0.401177C 16.5 0.404316 16.5 0.407474 16.5 0.410652C 16.5 0.413829 16.5 0.417026 16.5 0.420241C 16.5 0.423457 16.5 0.426692 16.5 0.429946C 16.5 0.4332 16.5 0.436474 16.5 0.439766C 16.5 0.443059 16.5 0.446371 16.5 0.449702C 16.5 0.453034 16.5 0.456384 16.5 0.459754C 16.5 0.463124 16.5 0.466513 16.5 0.469921C 16.5 0.47333 16.5 0.476758 16.5 0.480205C 16.5 0.483652 16.5 0.487119 16.5 0.490605C 16.5 0.494091 16.5 0.497596 16.5 0.501121C 16.5 0.504645 16.5 0.50819 16.5 0.511753C 16.5 0.515317 16.5 0.5189 16.5 0.522502C 16.5 0.526105 16.5 0.529727 16.5 0.533368C 16.5 0.53701 16.5 0.540671 16.5 0.544351C 16.5 0.548032 16.5 0.551732 16.5 0.555451C 16.5 0.559171 16.5 0.56291 16.5 0.566669C 16.5 0.570427 16.5 0.574206 16.5 0.578003C 16.5 0.581801 16.5 0.585619 16.5 0.589456C 16.5 0.593293 16.5 0.597149 16.5 0.601026C 16.5 0.604902 16.5 0.608798 16.5 0.612714C 16.5 0.616629 16.5 0.620565 16.5 0.62452C 16.5 0.628475 16.5 0.632449 16.5 0.636444C 16.5 0.640438 16.5 0.644452 16.5 0.648486C 16.5 0.65252 16.5 0.656574 16.5 0.660647C 16.5 0.664721 16.5 0.668814 16.5 0.672927C 16.5 0.67704 16.5 0.681173 16.5 0.685325C 16.5 0.689478 16.5 0.69365 16.5 0.697843C 16.5 0.702035 16.5 0.706247 16.5 0.710479C 16.5 0.714711 16.5 0.718963 16.5 0.723235C 16.5 0.727507 16.5 0.731798 16.5 0.73611C 16.5 0.740422 16.5 0.744753 16.5 0.749105C 16.5 0.753456 16.5 0.757828 16.5 0.762219C 16.5 0.766611 16.5 0.771022 16.5 0.775454C 16.5 0.779885 16.5 0.784337 16.5 0.788808C 16.5 0.79328 16.5 0.797771 16.5 0.802283C 16.5 0.806795 16.5 0.811326 16.5 0.815878C 16.5 0.82043 16.5 0.825001 16.5 0.829593C 16.5 0.834185 16.5 0.838797 16.5 0.84343C 16.5 0.848062 16.5 0.852714 16.5 0.857387C 16.5 0.862059 16.5 0.866752 16.5 0.871464C 16.5 0.876177 16.5 0.88091 16.5 0.885663C 16.5 0.890417 16.5 0.89519 16.5 0.899984C 16.5 0.904777 16.5 0.909591 16.5 0.914426C 16.5 0.91926 16.5 0.924114 16.5 0.928989C 16.5 0.933864 16.5 0.938759 16.5 0.943674C 16.5 0.948589 16.5 0.953525 16.5 0.958481C 16.5 0.963437 16.5 0.968413 16.5 0.97341C 16.5 0.978407 16.5 0.983424 16.5 0.988461C 16.5 0.993499 16.5 0.998556 16.5 1.00363C 16.5 1.00871 16.5 1.01381 16.5 1.01893C 16.5 1.02405 16.5 1.02919 16.5 1.03435C 16.5 1.03951 16.5 1.04469 16.5 1.04989C 16.5 1.05509 16.5 1.06031 16.5 1.06556C 16.5 1.0708 16.5 1.07606 16.5 1.08134C 16.5 1.08663 16.5 1.09193 16.5 1.09725C 16.5 1.10258 16.5 1.10792 16.5 1.11329C 16.5 1.11865 16.5 1.12404 16.5 1.12945C 16.5 1.13485 16.5 1.14028 16.5 1.14573C 16.5 1.15118 16.5 1.15664 16.5 1.16213C 16.5 1.16762 16.5 1.17313 16.5 1.17866C 16.5 1.18419 16.5 1.18975 16.5 1.19532C 16.5 1.20089 16.5 1.20648 16.5 1.2121C 16.5 1.21771 16.5 1.22334 16.5 1.229C 16.5 1.23465 16.5 1.24033 16.5 1.24603C 16.5 1.25172 16.5 1.25744 16.5 1.26318C 16.5 1.26892 16.5 1.27468 16.5 1.28046C 16.5 1.28624 16.5 1.29204 16.5 1.29786C 16.5 1.30368 16.5 1.30952 16.5 1.31539C 16.5 1.32125 16.5 1.32713 16.5 1.33304C 16.5 1.33894 16.5 1.34487 16.5 1.35082C 16.5 1.35676 16.5 1.36273 16.5 1.36872C 16.5 1.37471 16.5 1.38072 16.5 1.38675C 16.5 1.39278 16.5 1.39883 16.5 1.40491C 16.5 1.41098 16.5 1.41708 16.5 1.42319C 16.5 1.42931 16.5 1.43544 16.5 1.4416C 16.5 1.44776 16.5 1.45394 16.5 1.46013C 16.5 1.46633 16.5 1.47255 16.5 1.4788C 16.5 1.48504 16.5 1.4913 16.5 1.49759C 16.5 1.50387 16.5 1.51018 16.5 1.5165C 16.5 1.52283 16.5 1.52918 16.5 1.53554C 16.5 1.54191 16.5 1.5483 16.5 1.55472C 16.5 1.56113 16.5 1.56756 16.5 1.57401C 16.5 1.58047 16.5 1.58694 16.5 1.59344C 16.5 1.59993 16.5 1.60645 16.5 1.61299C 16.5 1.61953 16.5 1.62609 16.5 1.63267C 16.5 1.63925 16.5 1.64586 16.5 1.65248C 16.5 1.65911 16.5 1.66575 16.5 1.67242C 16.5 1.67909 16.5 1.68577 16.5 1.69248C 16.5 1.69919 16.5 1.70593 16.5 1.71268C 16.5 1.71943 16.5 1.72621 16.5 1.733C 16.5 1.7398 16.5 1.74661 16.5 1.75345C 16.5 1.76029 16.5 1.76715 16.5 1.77403C 16.5 1.78092 16.5 1.78782 16.5 1.79474C 16.5 1.80167 16.5 1.80862 16.5 1.81558C 16.5 1.82255 16.5 1.82954 16.5 1.83655C 16.5 1.84356 16.5 1.8506 16.5 1.85765C 16.5 1.8647 16.5 1.87178 16.5 1.87888C 16.5 1.88598 16.5 1.89309 16.5 1.90024C 16.5 1.90738 16.5 1.91454 16.5 1.92172C 16.5 1.92891 16.5 1.93611 16.5 1.94334C 16.5 1.95057 16.5 1.95782 16.5 1.96509C 16.5 1.97236 16.5 1.97965 16.5 1.98697C 16.5 1.99428 16.5 2.00162 16.5 2.00898C 16.5 2.01634 16.5 2.02372 16.5 2.03112C 16.5 2.03852 16.5 2.04595 16.5 2.05339C 16.5 2.06084 16.5 2.0683 16.5 2.07579C 16.5 2.08328 16.5 2.0908 16.5 2.09833C 16.5 2.10586 16.5 2.11342 16.5 2.12099C 16.5 2.12857 16.5 2.13617 16.5 2.14379C 16.5 2.15141 16.5 2.15905 16.5 2.16672C 16.5 2.17438 16.5 2.18207 16.5 2.18978C 16.5 2.19749 16.5 2.20522 16.5 2.21297C 16.5 2.22073 16.5 2.2285 16.5 2.2363C 16.5 2.2441 16.5 2.25191 16.5 2.25976C 16.5 2.2676 16.5 2.27546 16.5 2.28335C 16.5 2.29123 16.5 2.29914 16.5 2.30707C 16.5 2.315 16.5 2.32295 16.5 2.33092C 16.5 2.3389 16.5 2.34689 16.5 2.35491C 16.5 2.36293 16.5 2.37097 16.5 2.37903C 16.5 2.3871 16.5 2.39518 16.5 2.40329C 16.5 2.4114 16.5 2.41953 16.5 2.42768C 16.5 2.43583 16.5 2.444 16.5 2.4522C 16.5 2.4604 16.5 2.46861 16.5 2.47686C 16.5 2.4851 16.5 2.49336 16.5 2.50165C 16.5 2.50993 16.5 2.51824 16.5 2.52657C 16.5 2.5349 16.5 2.54325 16.5 2.55163C 16.5 2.56 16.5 2.5684 16.5 2.57682C 16.5 2.58524 16.5 2.59368 16.5 2.60215C 16.5 2.61061 16.5 2.6191 16.5 2.62761C 16.5 2.63612 16.5 2.64465 16.5 2.6532C 16.5 2.66176 16.5 2.67034 16.5 2.67894C 16.5 2.68754 16.5 2.69616 16.5 2.7048C 16.5 2.71345 16.5 2.72211 16.5 2.7308C 16.5 2.73949 16.5 2.74821 16.5 2.75694C 16.5 2.76568 16.5 2.77443 16.5 2.78322C 16.5 2.792 16.5 2.8008 16.5 2.80962C 16.5 2.81845 16.5 2.8273 16.5 2.83617C 16.5 2.84504 16.5 2.85393 16.5 2.86285C 16.5 2.87177 16.5 2.88071 16.5 2.88967C 16.5 2.89863 16.5 2.90761 16.5 2.91662C 16.5 2.92563 16.5 2.93466 16.5 2.94371C 16.5 2.95276 16.5 2.96184 16.5 2.97094C 16.5 2.98004 16.5 2.98916 16.5 2.9983C 16.5 3.00744 16.5 3.01661 16.5 3.0258C 16.5 3.03499 16.5 3.0442 16.5 3.05344C 16.5 3.06267 16.5 3.07193 16.5 3.08121C 16.5 3.0905 16.5 3.0998 16.5 3.10913C 16.5 3.11845 16.5 3.1278 16.5 3.13718C 16.5 3.14655 16.5 3.15595 16.5 3.16536C 16.5 3.17478 16.5 3.18423 16.5 3.19369C 16.5 3.20316 16.5 3.21264 16.5 3.22215C 16.5 3.23167 16.5 3.2412 16.5 3.25076C 16.5 3.26031 16.5 3.26989 16.5 3.2795C 16.5 3.2891 16.5 3.29873 16.5 3.30838C 16.5 3.31803 16.5 3.3277 16.5 3.33739C 16.5 3.34709 16.5 3.35681 16.5 3.36655C 16.5 3.37629 16.5 3.38606 16.5 3.39585C 16.5 3.40563 16.5 3.41545 16.5 3.42528C 16.5 3.43512 16.5 3.44497 16.5 3.45486C 16.5 3.46474 16.5 3.47464 16.5 3.48457C 16.5 3.4945 16.5 3.50445 16.5 3.51442C 16.5 3.5244 16.5 3.53439 16.5 3.54442C 16.5 3.55444 16.5 3.56448 16.5 3.57455C 16.5 3.58462 16.5 3.59471 16.5 3.60482C 16.5 3.61494 16.5 3.62507 16.5 3.63523C 16.5 3.6454 16.5 3.65558 16.5 3.66579C 16.5 3.676 16.5 3.68623 16.5 3.69648C 16.5 3.70674 16.5 3.71702 16.5 3.72732C 16.5 3.73762 16.5 3.74794 16.5 3.75829C 16.5 3.76864 16.5 3.77901 16.5 3.78941C 16.5 3.79981 16.5 3.81023 16.5 3.82067C 16.5 3.83111 16.5 3.84158 16.5 3.85207C 16.5 3.86256 16.5 3.87307 16.5 3.88361C 16.5 3.89415 16.5 3.90471 16.5 3.91529C 16.5 3.92588 16.5 3.93648 16.5 3.94712C 16.5 3.95775 16.5 3.9684 16.5 3.97908C 16.5 3.98976 16.5 4.00046 16.5 4.01119C 16.5 4.02192 16.5 4.03267 16.5 4.04344C 16.5 4.05421 16.5 4.06501 16.5 4.07583C 16.5 4.08666 16.5 4.0975 16.5 4.10837C 16.5 4.11924 16.5 4.13013 16.5 4.14105C 16.5 4.15196 16.5 4.1629 16.5 4.17387C 16.5 4.18483 16.5 4.19582 16.5 4.20683C 16.5 4.21784 16.5 4.22888 16.5 4.23994C 16.5 4.251 16.5 4.26208 16.5 4.27319C 16.5 4.2843 16.5 4.29543 16.5 4.30659C 16.5 4.31774 16.5 4.32892 16.5 4.34012C 16.5 4.35133 16.5 4.36255 16.5 4.3738C 16.5 4.38506 16.5 4.39633 16.5 4.40763C 16.5 4.41893 16.5 4.43025 16.5 4.4416C 16.5 4.45295 16.5 4.46432 16.5 4.47571C 16.5 4.48711 16.5 4.49853 16.5 4.50997C 16.5 4.52142 16.5 4.53288 16.5 4.54437C 16.5 4.55587 16.5 4.56738 16.5 4.57892C 16.5 4.59046 16.5 4.60203 16.5 4.61361C 16.5 4.6252 16.5 4.63682 16.5 4.64845C 16.5 4.66009 16.5 4.67175 16.5 4.68343C 16.5 4.69512 16.5 4.70683 16.5 4.71856C 16.5 4.7303 16.5 4.74205 16.5 4.75384C 16.5 4.76562 16.5 4.77742 16.5 4.78926C 16.5 4.80109 16.5 4.81294 16.5 4.82482C 16.5 4.8367 16.5 4.8486 16.5 4.86053C 16.5 4.87246 16.5 4.88441 16.5 4.89639C 16.5 4.90836 16.5 4.92037 16.5 4.93239C 16.5 4.94442 16.5 4.95647 16.5 4.96854C 16.5 4.98062 16.5 4.99271 16.5 5.00484C 16.5 5.01696 16.5 5.02911 16.5 5.04128C 16.5 5.05345 16.5 5.06565 16.5 5.07787C 16.5 5.09009 16.5 5.10234 16.5 5.11461C 16.5 5.12688 16.5 5.13917 16.5 5.15149C 16.5 5.16381 16.5 5.17615 16.5 5.18852C 16.5 5.20089 16.5 5.21328 16.5 5.2257C 16.5 5.23812 16.5 5.25056 16.5 5.26303C 16.5 5.27549 16.5 5.28799 16.5 5.3005C 16.5 5.31302 16.5 5.32556 16.5 5.33812C 16.5 5.35069 16.5 5.36328 16.5 5.37589C 16.5 5.38851 16.5 5.40115 16.5 5.41381C 16.5 5.42648 16.5 5.43917 16.5 5.45188C 16.5 5.46459 16.5 5.47733 16.5 5.4901C 16.5 5.50286 16.5 5.51565 16.5 5.52846C 16.5 5.54127 16.5 5.55411 16.5 5.56697C 16.5 5.57984 16.5 5.59272 16.5 5.60564C 16.5 5.61855 16.5 5.63149 16.5 5.64445C 16.5 5.65741 16.5 5.6704 16.5 5.68341C 16.5 5.69642 16.5 5.70946 16.5 5.72252C 16.5 5.73558 16.5 5.74867 16.5 5.76178C 16.5 5.77489 16.5 5.78803 16.5 5.80119C 16.5 5.81435 16.5 5.82754 16.5 5.84075C 16.5 5.85396 16.5 5.8672 16.5 5.88046C 16.5 5.89372 16.5 5.90701 16.5 5.92032C 16.5 5.93363 16.5 5.94697 16.5 5.96033C 16.5 5.97369 16.5 5.98708 16.5 6.00049C 16.5 6.0139 16.5 6.02734 16.5 6.0408C 16.5 6.05426 16.5 6.06775 16.5 6.08127C 16.5 6.09478 16.5 6.10832 16.5 6.12188C 16.5 6.13544 16.5 6.14903 16.5 6.16264C 16.5 6.17626 16.5 6.1899 16.5 6.20356C 16.5 6.21722 16.5 6.23091 16.5 6.24463C 16.5 6.25834 16.5 6.27208 16.5 6.28585C 16.5 6.29961 16.5 6.3134 16.5 6.32722C 16.5 6.34104 16.5 6.35488 16.5 6.36874C 16.5 6.38261 16.5 6.3965 16.5 6.41042C 16.5 6.42434 16.5 6.43828 16.5 6.45225C 16.5 6.46621 16.5 6.48021 16.5 6.49423C 16.5 6.50825 16.5 6.52229 16.5 6.53636C 16.5 6.55043 16.5 6.56452 16.5 6.57864C 16.5 6.59277 16.5 6.60691 16.5 6.62108C 16.5 6.63525 16.5 6.64945 16.5 6.66367C 16.5 6.6779 16.5 6.69215 16.5 6.70642C 16.5 6.72069 16.5 6.73499 16.5 6.74932C 16.5 6.76364 16.5 6.77799 16.5 6.79237C 16.5 6.80674 16.5 6.82115 16.5 6.83557C 16.5 6.85 16.5 6.86445 16.5 6.87893C 16.5 6.89341 16.5 6.90792 16.5 6.92245C 16.5 6.93698 16.5 6.95153 16.5 6.96611C 16.5 6.98069 16.5 6.9953 16.5 7.00993C 16.5 7.02457 16.5 7.03923 16.5 7.05391C 16.5 7.06859 16.5 7.0833 16.5 7.09804C 16.5 7.11278 16.5 7.12754 16.5 7.14233C 16.5 7.15711 16.5 7.17193 16.5 7.18677C 16.5 7.2016 16.5 7.21647 16.5 7.23136C 16.5 7.24625 16.5 7.26117 16.5 7.27611C 16.5 7.29105 16.5 7.30602 16.5 7.32102C 16.5 7.33601 16.5 7.35103 16.5 7.36608C 16.5 7.38112 16.5 7.3962 16.5 7.41129C 16.5 7.42639 16.5 7.44152 16.5 7.45667C 16.5 7.47182 16.5 7.48699 16.5 7.5022C 16.5 7.5174 16.5 7.53263 16.5 7.54788C 16.5 7.56313 16.5 7.57842 16.5 7.59372C 16.5 7.60903 16.5 7.62436 16.5 7.63972C 16.5 7.65508 16.5 7.67046 16.5 7.68587C 16.5 7.70128 16.5 7.71672 16.5 7.73218C 16.5 7.74765 16.5 7.76314 16.5 7.77865C 16.5 7.79417 16.5 7.80971 16.5 7.82528C 16.5 7.84084 16.5 7.85644 16.5 7.87206C 16.5 7.88768 16.5 7.90333 16.5 7.919C 16.5 7.93467 16.5 7.95037 16.5 7.9661C 16.5 7.98182 16.5 7.99757 16.5 8.01335C 16.5 8.02913 16.5 8.04493 16.5 8.06076C 16.5 8.07659 16.5 8.09245 16.5 8.10833C 16.5 8.12422 16.5 8.14013 16.5 8.15606C 16.5 8.172 16.5 8.18796 16.5 8.20395C 16.5 8.21994 16.5 8.23595 16.5 8.25199C 16.5 8.26803 16.5 8.2841 16.5 8.3002C 16.5 8.31629 16.5 8.33241 16.5 8.34856C 16.5 8.36471 16.5 8.38088 16.5 8.39708C 16.5 8.41328 16.5 8.42951 16.5 8.44576C 16.5 8.46202 16.5 8.4783 16.5 8.4946C 16.5 8.51091 16.5 8.52724 16.5 8.5436C 16.5 8.55996 16.5 8.57635 16.5 8.59276C 16.5 8.60917 16.5 8.62561 16.5 8.64208C 16.5 8.65854 16.5 8.67504 16.5 8.69156C 16.5 8.70808 16.5 8.72462 16.5 8.74119C 16.5 8.75777 16.5 8.77437 16.5 8.79099C 16.5 8.80762 16.5 8.82427 16.5 8.84095C 16.5 8.85763 16.5 8.87434 16.5 8.89107C 16.5 8.9078 16.5 8.92456 16.5 8.94135C 16.5 8.95814 16.5 8.97495 16.5 8.99179C 16.5 9.00863 16.5 9.0255 16.5 9.04239C 16.5 9.05929 16.5 9.07621 16.5 9.09315C 16.5 9.1101 16.5 9.12708 16.5 9.14408C 16.5 9.16108 16.5 9.17811 16.5 9.19516C 16.5 9.21222 16.5 9.2293 16.5 9.24641C 16.5 9.26352 16.5 9.28066 16.5 9.29782C 16.5 9.31498 16.5 9.33217 16.5 9.34939C 16.5 9.36661 16.5 9.38385 16.5 9.40112C 16.5 9.41839 16.5 9.43569 16.5 9.45301C 16.5 9.47034 16.5 9.48769 16.5 9.50507C 16.5 9.52245 16.5 9.53986 16.5 9.55729C 16.5 9.57472 16.5 9.59218 16.5 9.60967C 16.5 9.62716 16.5 9.64467 16.5 9.66222C 16.5 9.67976 16.5 9.69733 16.5 9.71492C 16.5 9.73252 16.5 9.75014 16.5 9.76779C 16.5 9.78544 16.5 9.80312 16.5 9.82083C 16.5 9.83853 16.5 9.85627 16.5 9.87402C 16.5 9.89178 16.5 9.90957 16.5 9.92739C 16.5 9.9452 16.5 9.96304 16.5 9.98091C 16.5 9.99878 16.5 10.0167 16.5 10.0346C 16.5 10.0525 16.5 10.0705 16.5 10.0884C 16.5 10.1064 16.5 10.1244 16.5 10.1425C 16.5 10.1605 16.5 10.1786 16.5 10.1966C 16.5 10.2147 16.5 10.2328 16.5 10.251C 16.5 10.2691 16.5 10.2873 16.5 10.3055C 16.5 10.3237 16.5 10.3419 16.5 10.3602C 16.5 10.3784 16.5 10.3967 16.5 10.415C 16.5 10.4333 16.5 10.4517 16.5 10.47C 16.5 10.4884 16.5 10.5068 16.5 10.5252C 16.5 10.5436 16.5 10.5621 16.5 10.5805C 16.5 10.599 16.5 10.6175 16.5 10.636C 16.5 10.6546 16.5 10.6731 16.5 10.6917C 16.5 10.7103 16.5 10.7289 16.5 10.7475C 16.5 10.7662 16.5 10.7848 16.5 10.8035C 16.5 10.8222 16.5 10.8409 16.5 10.8597C 16.5 10.8784 16.5 10.8972 16.5 10.916C 16.5 10.9348 16.5 10.9537 16.5 10.9725C 16.5 10.9914 16.5 11.0103 16.5 11.0292C 16.5 11.0481 16.5 11.067 16.5 11.086C 16.5 11.105 16.5 11.124 16.5 11.143C 16.5 11.162 16.5 11.1811 16.5 11.2002C 16.5 11.2193 16.5 11.2384 16.5 11.2575C 16.5 11.2766 16.5 11.2958 16.5 11.315C 16.5 11.3342 16.5 11.3534 16.5 11.3727C 16.5 11.3919 16.5 11.4112 16.5 11.4305C 16.5 11.4498 16.5 11.4691 16.5 11.4885C 16.5 11.5079 16.5 11.5273 16.5 11.5467C 16.5 11.5661 16.5 11.5855 16.5 11.605C 16.5 11.6245 16.5 11.644 16.5 11.6635C 16.5 11.683 16.5 11.7026 16.5 11.7222C 16.5 11.7418 16.5 11.7614 16.5 11.781C 16.5 11.8007 16.5 11.8203 16.5 11.84C 16.5 11.8597 16.5 11.8795 16.5 11.8992C 16.5 11.919 16.5 11.9388 16.5 11.9586C 16.5 11.9784 16.5 11.9982 16.5 12.0181C 16.5 12.038 16.5 12.0579 16.5 12.0778C 16.5 12.0977 16.5 12.1177 16.5 12.1376C 16.5 12.1576 16.5 12.1776 16.5 12.1977C 16.5 12.2177 16.5 12.2378 16.5 12.2579C 16.5 12.278 16.5 12.2981 16.5 12.3182C 16.5 12.3384 16.5 12.3586 16.5 12.3788C 16.5 12.399 16.5 12.4192 16.5 12.4395C 16.5 12.4598 16.5 12.48 16.5 12.5004C 16.5 12.5207 16.5 12.541 16.5 12.5614C 16.5 12.5818 16.5 12.6022 16.5 12.6226C 16.5 12.6431 16.5 12.6635 16.5 12.684C 16.5 12.7045 16.5 12.725 16.5 12.7456C 16.5 12.7661 16.5 12.7867 16.5 12.8073C 16.5 12.8279 16.5 12.8486 16.5 12.8692C 16.5 12.8899 16.5 12.9106 16.5 12.9313C 16.5 12.952 16.5 12.9728 16.5 12.9936C 16.5 13.0143 16.5 13.0351 16.5 13.056C 16.5 13.0768 16.5 13.0977 16.5 13.1186C 16.5 13.1395 16.5 13.1604 16.5 13.1813C 16.5 13.2023 16.5 13.2233 16.5 13.2443C 16.5 13.2653 16.5 13.2863 16.5 13.3074C 16.5 13.3284 16.5 13.3495 16.5 13.3707C 16.5 13.3918 16.5 13.4129 16.5 13.4341C 16.5 13.4553 16.5 13.4765 16.5 13.4977C 16.5 13.519 16.5 13.5403 16.5 13.5615C 16.5 13.5828 16.5 13.6042 16.5 13.6255C 16.5 13.6469 16.5 13.6683 16.5 13.6897C 16.5 13.7111 16.5 13.7325 16.5 13.754C 16.5 13.7755 16.5 13.797 16.5 13.8185C 16.5 13.84 16.5 13.8616 16.5 13.8832C 16.5 13.9047 16.5 13.9264 16.5 13.948C 16.5 13.9696 16.5 13.9913 16.5 14.013C 16.5 14.0347 16.5 14.0564 16.5 14.0782C 16.5 14.1 16.5 14.1218 16.5 14.1436C 16.5 14.1654 16.5 14.1872 16.5 14.2091C 16.5 14.231 16.5 14.2529 16.5 14.2748C 16.5 14.2968 16.5 14.3187 16.5 14.3407C 16.5 14.3627 16.5 14.3847 16.5 14.4068C 16.5 14.4288 16.5 14.4509 16.5 14.473C 16.5 14.4951 16.5 14.5173 16.5 14.5394C 16.5 14.5616 16.5 14.5838 16.5 14.606C 16.5 14.6283 16.5 14.6505 16.5 14.6728C 16.5 14.6951 16.5 14.7174 16.5 14.7397C 16.5 14.7621 16.5 14.7845 16.5 14.8069C 16.5 14.8293 16.5 14.8517 16.5 14.8742C 16.5 14.8966 16.5 14.9191 16.5 14.9416C 16.5 14.9641 16.5 14.9867 16.5 15.0093C 16.5 15.0319 16.5 15.0545 16.5 15.0771C 16.5 15.0997 16.5 15.1224 16.5 15.1451C 16.5 15.1678 16.5 15.1905 16.5 15.2133C 16.5 15.236 16.5 15.2588 16.5 15.2816C 16.5 15.3045 16.5 15.3273 16.5 15.3502C 16.5 15.373 16.5 15.3959 16.5 15.4189C 16.5 15.4418 16.5 15.4648 16.5 15.4878C 16.5 15.5108 16.5 15.5338 16.5 15.5568C 16.5 15.5799 16.5 15.603 16.5 15.6261C 16.5 15.6492 16.5 15.6723 16.5 15.6955C 16.5 15.7187 16.5 15.7419 16.5 15.7651C 16.5 15.7883 16.5 15.8116 16.5 15.8349C 16.5 15.8582 16.5 15.8815 16.5 15.9048C 16.5 15.9282 16.5 15.9516 16.5 15.975C 16.5 15.9984 16.5 16.0218 16.5 16.0453C 16.5 16.0688 16.5 16.0922 16.5 16.1158C 16.5 16.1393 16.5 16.1629 16.5 16.1864C 16.5 16.21 16.5 16.2337 16.5 16.2573C 16.5 16.2809 16.5 16.3046 16.5 16.3283C 16.5 16.352 16.5 16.3758 16.5 16.3995C 16.5 16.4233 16.5 16.4471 16.5 16.4709C 16.5 16.4948 16.5 16.5186 16.5 16.5425C 16.5 16.5664 16.5 16.5903 16.5 16.6143C 16.5 16.6382 16.5 16.6622 16.5 16.6862C 16.5 16.7102 16.5 16.7342 16.5 16.7583L 23.5 16.7583Z"/>
        <path id="path2_fill" d="M 31 15.5C 31 24.0604 24.0604 31 15.5 31C 6.93959 31 0 24.0604 0 15.5C 0 6.93959 6.93959 0 15.5 0C 24.0604 0 31 6.93959 31 15.5Z"/>
        <path id="path3_stroke" d="M 6 1.5L 6 27.5L 13 27.5L 13 1.5L 6 1.5ZM 19 -3.5L 0 -3.5L 0 3.5L 19 3.5L 19 -3.5Z"/>
    </defs>
</svg>
