<svg viewBox="0 0 30 28" fill="none" xmlns="http://www.w3.org/2000/svg">
    <path d="M29.9306 10.6369C29.4715 9.23527 26.9388 8.91503 24.2599 8.57121C22.7906 8.3816 21.1192 8.1675 20.6154 7.80553C20.1098 7.44447 19.4012 5.95938 18.7737 4.64667C17.6358 2.26164 16.5613 0.0081648 15.0528 0.00272161L15.0249 0C13.5313 0.0244943 12.4428 2.24894 11.2854 4.61038C10.6485 5.91584 9.92316 7.39548 9.41848 7.75201C8.90542 8.10944 7.23775 8.30812 5.76189 8.48048C3.083 8.79982 0.549371 9.09738 0.0744894 10.4917C-0.397599 11.8879 1.45258 13.598 3.41449 15.4124C4.49089 16.4049 5.70975 17.5352 5.90063 18.1158C6.09152 18.6955 5.76748 20.3058 5.48348 21.7238C4.96484 24.3038 4.47413 26.7451 5.6874 27.6205C5.97792 27.8247 6.34293 27.9272 6.77404 27.9181C8.01339 27.8972 9.79746 26.9574 11.5191 26.0475C12.8106 25.3598 14.2762 24.586 14.928 24.5769C15.5566 24.5787 17.0278 25.3761 18.3239 26.0774C20.0847 27.0309 21.9107 28.0179 23.1519 27.9998C23.5374 27.9907 23.8698 27.8936 24.1389 27.7076C25.3605 26.8485 24.8968 24.4063 24.4043 21.8163C24.1352 20.3974 23.8316 18.7826 24.0234 18.2038C24.2218 17.6241 25.4546 16.5101 26.5394 15.5231C28.519 13.7268 30.3868 12.0367 29.9306 10.6369Z" fill="#FF9800"/>
</svg>
