<svg viewBox="0 0 24 30" fill="none" xmlns="http://www.w3.org/2000/svg">
    <path d="M24 18.8826C24 18.0612 23.8626 17.2413 23.6365 16.4516C22.3925 12.1061 19.8196 10.6343 17.9542 8.2698C16.0768 5.89066 15.6647 3.681 15.6647 0.650287C15.6647 0.406846 15.5199 0.184342 15.2903 0.0727849C15.06 -0.0394412 14.7833 -0.0210615 14.5739 0.122203C11.1166 2.45136 9.52766 5.13827 8.81742 8.32059C8.1322 11.3908 5.30417 12.8929 4.81991 9.78461V9.78461C4.78823 9.5792 4.65494 9.40046 4.46101 9.30284C4.26508 9.2065 4.03476 9.1995 3.83612 9.29207C3.68867 9.35926 0.216809 11.0201 0.0148028 17.6515C0.00064618 17.8721 0 18.0934 0 18.3146C0 24.7571 5.56794 29.999 12.4113 29.999C12.4176 29.9994 12.4241 30.0001 12.4302 30C12.436 29.9999 12.4418 29.999 12.4476 29.999V29.999C19.2741 29.9806 24 25.3137 24 18.8826V18.8826Z" fill="url(#paint0_linear)"/>
    <defs>
        <linearGradient id="paint0_linear" x2="1" gradientUnits="userSpaceOnUse" gradientTransform="matrix(20.9032 -21.2903 17.4477 26.7663 -5.62706 11.7781)">
            <stop stop-color="#F5576C"/>
            <stop offset="1" stop-color="#FF795C"/>
        </linearGradient>
    </defs>
</svg>
